Getting and Cleaning Data Course - Module 3
…
chicago <- as_tibble(chicago)

class(chicago)
[1] "tbl_df"     "tbl"        "data.frame"

chicago                                 # no more "head()" needed.
# A tibble: 6,940 × 8
   city   tmpd  dptp date       pm25tmean2 pm10tmean2 o3tmean2 no2tmean2
   <chr> <dbl> <dbl> <date>          <dbl>      <dbl>    <dbl>     <dbl>
 1 chic   31.5  31.5 1987-01-01         NA       34       4.25      20.0
 2 chic   33    29.9 1987-01-02         NA       NA       3.30      23.2
 3 chic   33    27.4 1987-01-03         NA       34.2     3.33      23.8
 4 chic   29    28.6 1987-01-04         NA       47       4.38      30.4
 5 chic   32    28.9 1987-01-05         NA       NA       4.75      30.3
 6 chic   40    35.1 1987-01-06         NA       48       5.83      25.8
 7 chic   34.5  26.8 1987-01-07         NA       41       9.29      20.6
 8 chic   29    22   1987-01-08         NA       36      11.3       17.0
 9 chic   26.5  29   1987-01-09         NA       33.3     4.5       23.4
10 chic   32.5  27.8 1987-01-10         NA       NA       4.96      19.5
# … with 6,930 more rows
…
One of the nice things we can do with the select()
function in dplyr, is to access a set of
columns using the colon operator with just
the names of the variables.

Let’s say that we want to get the first 3 columns, that is to say,
starting with city and ending with
dptp (the dew point -punto de rocío- column),
including all the columns in between.

names(chicago)[1:3]
[1] "city" "tmpd" "dptp"

select(chicago, city:dptp)
# A tibble: 6,940 × 3
   city   tmpd  dptp
   <chr> <dbl> <dbl>
 1 chic   31.5  31.5
 2 chic   33    29.9
 3 chic   33    27.4
 4 chic   29    28.6
 5 chic   32    28.9
 6 chic   40    35.1
 7 chic   34.5  26.8
 8 chic   29    22  
 9 chic   26.5  29  
10 chic   32.5  27.8
# … with 6,930 more rows
…
This colon notation is not a notation that we would
normally be able to use in other functions (normally, the
: notation is reserved for numbers).

So it’s a nice and handy way to look at subsets of
columns of a data frame using the colon notation with
just names, as an interesting and useful
alternative to subsetting with numbers
representing variables’
position.

chicago[, 1:3]                              # Again, no "head()" needed.
# A tibble: 6,940 × 3
   city   tmpd  dptp
   <chr> <dbl> <dbl>
 1 chic   31.5  31.5
 2 chic   33    29.9
 3 chic   33    27.4
 4 chic   29    28.6
 5 chic   32    28.9
 6 chic   40    35.1
 7 chic   34.5  26.8
 8 chic   29    22  
 9 chic   26.5  29  
10 chic   32.5  27.8
# … with 6,930 more rows

7.2.3.2 The output is in
the order user specifies.

The columns are returned in the order that user specifies those
columns.

For example, if we are using the colon notation, we can
invert the order like this:

select(chicago, dptp:city)
# A tibble: 6,940 × 3
    dptp  tmpd city 
   <dbl> <dbl> <chr>
 1  31.5  31.5 chic 
 2  29.9  33   chic 
 3  27.4  33   chic 
 4  28.6  29   chic 
 5  28.9  32   chic 
 6  35.1  40   chic 
 7  26.8  34.5 chic 
 8  22    29   chic 
 9  29    26.5 chic 
10  27.8  32.5 chic 
# … with 6,930 more rows

Actually, we can do the same thing using square
braquets operator with numbers:

chicago[, 3:1]
# A tibble: 6,940 × 3
    dptp  tmpd city 
   <dbl> <dbl> <chr>
 1  31.5  31.5 chic 
 2  29.9  33   chic 
 3  27.4  33   chic 
 4  28.6  29   chic 
 5  28.9  32   chic 
 6  35.1  40   chic 
 7  26.8  34.5 chic 
 8  22    29   chic 
 9  29    26.5 chic 
10  27.8  32.5 chic 
# … with 6,930 more rows
…
As we’ll see, the same does not happen when extracting rows
with filter(), this last function does not perform any
ordering action and, therefore, we’ll need another function,
arrange(), to order rows.

7.2.3.3 Selecting columns
using comma or a vector of names.

We can specify columns separating their names with
commas or specifying the names in a vector
(naturally, without quotes!!).

select(chicago, city:dptp, pm25tmean2)
# A tibble: 6,940 × 4
   city   tmpd  dptp pm25tmean2
   <chr> <dbl> <dbl>      <dbl>
 1 chic   31.5  31.5         NA
 2 chic   33    29.9         NA
 3 chic   33    27.4         NA
 4 chic   29    28.6         NA
 5 chic   32    28.9         NA
 6 chic   40    35.1         NA
 7 chic   34.5  26.8         NA
 8 chic   29    22           NA
 9 chic   26.5  29           NA
10 chic   32.5  27.8         NA
# … with 6,930 more rows

select(chicago, pm25tmean2, dptp:city)
# A tibble: 6,940 × 4
   pm25tmean2  dptp  tmpd city 
        <dbl> <dbl> <dbl> <chr>
 1         NA  31.5  31.5 chic 
 2         NA  29.9  33   chic 
 3         NA  27.4  33   chic 
 4         NA  28.6  29   chic 
 5         NA  28.9  32   chic 
 6         NA  35.1  40   chic 
 7         NA  26.8  34.5 chic 
 8         NA  22    29   chic 
 9         NA  29    26.5 chic 
10         NA  27.8  32.5 chic 
# … with 6,930 more rows

select(chicago, c(dptp, pm25tmean2, tmpd))
# A tibble: 6,940 × 3
    dptp pm25tmean2  tmpd
   <dbl>      <dbl> <dbl>
 1  31.5         NA  31.5
 2  29.9         NA  33  
 3  27.4         NA  33  
 4  28.6         NA  29  
 5  28.9         NA  32  
 6  35.1         NA  40  
 7  26.8         NA  34.5
 8  22           NA  29  
 9  29           NA  26.5
10  27.8         NA  32.5
# … with 6,930 more rows

7.2.3.4 And the minus
sing to specify columns to “throw away”.

We can also use the minus sign to select all the
columns except for the columns indicated by name, by a
vector of names or by a range.

select(chicago, -city, -pm25tmean2)
# A tibble: 6,940 × 6
    tmpd  dptp date       pm10tmean2 o3tmean2 no2tmean2
   <dbl> <dbl> <date>          <dbl>    <dbl>     <dbl>
 1  31.5  31.5 1987-01-01       34       4.25      20.0
 2  33    29.9 1987-01-02       NA       3.30      23.2
 3  33    27.4 1987-01-03       34.2     3.33      23.8
 4  29    28.6 1987-01-04       47       4.38      30.4
 5  32    28.9 1987-01-05       NA       4.75      30.3
 6  40    35.1 1987-01-06       48       5.83      25.8
 7  34.5  26.8 1987-01-07       41       9.29      20.6
 8  29    22   1987-01-08       36      11.3       17.0
 9  26.5  29   1987-01-09       33.3     4.5       23.4
10  32.5  27.8 1987-01-10       NA       4.96      19.5
# … with 6,930 more rows

select(chicago, -c(city, pm25tmean2))
# A tibble: 6,940 × 6
    tmpd  dptp date       pm10tmean2 o3tmean2 no2tmean2
   <dbl> <dbl> <date>          <dbl>    <dbl>     <dbl>
 1  31.5  31.5 1987-01-01       34       4.25      20.0
 2  33    29.9 1987-01-02       NA       3.30      23.2
 3  33    27.4 1987-01-03       34.2     3.33      23.8
 4  29    28.6 1987-01-04       47       4.38      30.4
 5  32    28.9 1987-01-05       NA       4.75      30.3
 6  40    35.1 1987-01-06       48       5.83      25.8
 7  34.5  26.8 1987-01-07       41       9.29      20.6
 8  29    22   1987-01-08       36      11.3       17.0
 9  26.5  29   1987-01-09       33.3     4.5       23.4
10  32.5  27.8 1987-01-10       NA       4.96      19.5
# … with 6,930 more rows

select(chicago, -(city:dptp))
# A tibble: 6,940 × 5
   date       pm25tmean2 pm10tmean2 o3tmean2 no2tmean2
   <date>          <dbl>      <dbl>    <dbl>     <dbl>
 1 1987-01-01         NA       34       4.25      20.0
 2 1987-01-02         NA       NA       3.30      23.2
 3 1987-01-03         NA       34.2     3.33      23.8
 4 1987-01-04         NA       47       4.38      30.4
 5 1987-01-05         NA       NA       4.75      30.3
 6 1987-01-06         NA       48       5.83      25.8
 7 1987-01-07         NA       41       9.29      20.6
 8 1987-01-08         NA       36      11.3       17.0
 9 1987-01-09         NA       33.3     4.5       23.4
10 1987-01-10         NA       NA       4.96      19.5
# … with 6,930 more rows

chicago[, -(3:1)]
# A tibble: 6,940 × 5
   date       pm25tmean2 pm10tmean2 o3tmean2 no2tmean2
   <date>          <dbl>      <dbl>    <dbl>     <dbl>
 1 1987-01-01         NA       34       4.25      20.0
 2 1987-01-02         NA       NA       3.30      23.2
 3 1987-01-03         NA       34.2     3.33      23.8
 4 1987-01-04         NA       47       4.38      30.4
 5 1987-01-05         NA       NA       4.75      30.3
 6 1987-01-06         NA       48       5.83      25.8
 7 1987-01-07         NA       41       9.29      20.6
 8 1987-01-08         NA       36      11.3       17.0
 9 1987-01-09         NA       33.3     4.5       23.4
10 1987-01-10         NA       NA       4.96      19.5
# … with 6,930 more rows
…
There’s a equivalent code to use column notation in
regular R (without dplyr), that is a
little bit tricky because:

We have to find the index for where the city column
is and the index for where the dptp column is (we can do
that with the match() function).

Then we take the negative of those indices.

i <- match("city", names(chicago))
j <- match("dptp", names(chicago))
chicago[, -(i:j)]
# A tibble: 6,940 × 5
   date       pm25tmean2 pm10tmean2 o3tmean2 no2tmean2
   <date>          <dbl>      <dbl>    <dbl>     <dbl>
 1 1987-01-01         NA       34       4.25      20.0
 2 1987-01-02         NA       NA       3.30      23.2
 3 1987-01-03         NA       34.2     3.33      23.8
 4 1987-01-04         NA       47       4.38      30.4
 5 1987-01-05         NA       NA       4.75      30.3
 6 1987-01-06         NA       48       5.83      25.8
 7 1987-01-07         NA       41       9.29      20.6
 8 1987-01-08         NA       36      11.3       17.0
 9 1987-01-09         NA       33.3     4.5       23.4
10 1987-01-10         NA       NA       4.96      19.5
# … with 6,930 more rows
It’s not particularly complicated
but it’s an extra two lines of code
and perhaps not as readable.

7.2.3.6 There’re also
very useful selection helpers (a special syntax).

7.2.3.6.1 Selection
helpers for selecting specific columns:
everything(), last_col().

For example:

select(chicago, everything())
# A tibble: 6,940 × 8
   city   tmpd  dptp date       pm25tmean2 pm10tmean2 o3tmean2 no2tmean2
   <chr> <dbl> <dbl> <date>          <dbl>      <dbl>    <dbl>     <dbl>
 1 chic   31.5  31.5 1987-01-01         NA       34       4.25      20.0
 2 chic   33    29.9 1987-01-02         NA       NA       3.30      23.2
 3 chic   33    27.4 1987-01-03         NA       34.2     3.33      23.8
 4 chic   29    28.6 1987-01-04         NA       47       4.38      30.4
 5 chic   32    28.9 1987-01-05         NA       NA       4.75      30.3
 6 chic   40    35.1 1987-01-06         NA       48       5.83      25.8
 7 chic   34.5  26.8 1987-01-07         NA       41       9.29      20.6
 8 chic   29    22   1987-01-08         NA       36      11.3       17.0
 9 chic   26.5  29   1987-01-09         NA       33.3     4.5       23.4
10 chic   32.5  27.8 1987-01-10         NA       NA       4.96      19.5
# … with 6,930 more rows

select(chicago, last_col())
# A tibble: 6,940 × 1
   no2tmean2
       <dbl>
 1      20.0
 2      23.2
 3      23.8
 4      30.4
 5      30.3
 6      25.8
 7      20.6
 8      17.0
 9      23.4
10      19.5
# … with 6,930 more rows

7.2.3.6.2 Selection
helpers for selecting variables by matching patterns in their
names: ends_with(), starts_with(),
contains(), matches().

For example, if we wanted to keep every variable that ends with a
“2”, we could do:

select(chicago, ends_with("2"))
# A tibble: 6,940 × 4
   pm25tmean2 pm10tmean2 o3tmean2 no2tmean2
        <dbl>      <dbl>    <dbl>     <dbl>
 1         NA       34       4.25      20.0
 2         NA       NA       3.30      23.2
 3         NA       34.2     3.33      23.8
 4         NA       47       4.38      30.4
 5         NA       NA       4.75      30.3
 6         NA       48       5.83      25.8
 7         NA       41       9.29      20.6
 8         NA       36      11.3       17.0
 9         NA       33.3     4.5       23.4
10         NA       NA       4.96      19.5
# … with 6,930 more rows

Or if we wanted to keep every variable that starts with a
“d”, we could do:

select(chicago, starts_with("d"))
# A tibble: 6,940 × 2
    dptp date      
   <dbl> <date>    
 1  31.5 1987-01-01
 2  29.9 1987-01-02
 3  27.4 1987-01-03
 4  28.6 1987-01-04
 5  28.9 1987-01-05
 6  35.1 1987-01-06
 7  26.8 1987-01-07
 8  22   1987-01-08
 9  29   1987-01-09
10  27.8 1987-01-10
# … with 6,930 more rows

The contains() selection helper uses a literal
string to see if there’s a match. For example, if we wanted
only those variables containing “mean” in their names, we could
do:

select(chicago, contains("mean"))
# A tibble: 6,940 × 4
   pm25tmean2 pm10tmean2 o3tmean2 no2tmean2
        <dbl>      <dbl>    <dbl>     <dbl>
 1         NA       34       4.25      20.0
 2         NA       NA       3.30      23.2
 3         NA       34.2     3.33      23.8
 4         NA       47       4.38      30.4
 5         NA       NA       4.75      30.3
 6         NA       48       5.83      25.8
 7         NA       41       9.29      20.6
 8         NA       36      11.3       17.0
 9         NA       33.3     4.5       23.4
10         NA       NA       4.96      19.5
# … with 6,930 more rows

Finally, matches() matches a regular
expression. For example:

select(chicago, matches("^[to]"))  ## names that begin with either "t" or "o".
# A tibble: 6,940 × 2
    tmpd o3tmean2
   <dbl>    <dbl>
 1  31.5     4.25
 2  33       3.30
 3  33       3.33
 4  29       4.38
 5  32       4.75
 6  40       5.83
 7  34.5     9.29
 8  29      11.3 
 9  26.5     4.5 
10  32.5     4.96
# … with 6,930 more rows

7.2.3.6.3 Helpers that
select variables from a character vector: all_of(),
any_of().

Examples.

# All names must be present, otherwise an out-of-bounds error is thrown.
select(chicago, all_of(c("date", "o3tmean2", "tmpd")))
# A tibble: 6,940 × 3
   date       o3tmean2  tmpd
   <date>        <dbl> <dbl>
 1 1987-01-01     4.25  31.5
 2 1987-01-02     3.30  33  
 3 1987-01-03     3.33  33  
 4 1987-01-04     4.38  29  
 5 1987-01-05     4.75  32  
 6 1987-01-06     5.83  40  
 7 1987-01-07     9.29  34.5
 8 1987-01-08    11.3   29  
 9 1987-01-09     4.5   26.5
10 1987-01-10     4.96  32.5
# … with 6,930 more rows

select(chicago, all_of(c("date", "o3tmean2", "tmpd", "lalala")))
Error in `select()`:
! Problem while evaluating `all_of(c("date", "o3tmean2", "tmpd", "lalala"))`.

# The same as "all_of()", except that no error is thrown for names that
# not exist.
select(chicago, any_of(c("date", "o3tmean2", "tmpd", "lalala")))
# A tibble: 6,940 × 3
   date       o3tmean2  tmpd
   <date>        <dbl> <dbl>
 1 1987-01-01     4.25  31.5
 2 1987-01-02     3.30  33  
 3 1987-01-03     3.33  33  
 4 1987-01-04     4.38  29  
 5 1987-01-05     4.75  32  
 6 1987-01-06     5.83  40  
 7 1987-01-07     9.29  34.5
 8 1987-01-08    11.3   29  
 9 1987-01-09     4.5   26.5
10 1987-01-10     4.96  32.5
# … with 6,930 more rows

7.2.3.6.4 Helper that
applies a function to all variables: where().

This helper applies a function to all
variables and selects those for which the function returns
TRUE.

For example, let’s first select only the numeric
variables and then only those whose class is character.

select(chicago, where(is.numeric))
# A tibble: 6,940 × 6
    tmpd  dptp pm25tmean2 pm10tmean2 o3tmean2 no2tmean2
   <dbl> <dbl>      <dbl>      <dbl>    <dbl>     <dbl>
 1  31.5  31.5         NA       34       4.25      20.0
 2  33    29.9         NA       NA       3.30      23.2
 3  33    27.4         NA       34.2     3.33      23.8
 4  29    28.6         NA       47       4.38      30.4
 5  32    28.9         NA       NA       4.75      30.3
 6  40    35.1         NA       48       5.83      25.8
 7  34.5  26.8         NA       41       9.29      20.6
 8  29    22           NA       36      11.3       17.0
 9  26.5  29           NA       33.3     4.5       23.4
10  32.5  27.8         NA       NA       4.96      19.5
# … with 6,930 more rows

select(chicago, where(is.character))
# A tibble: 6,940 × 1
   city 
   <chr>
 1 chic 
 2 chic 
 3 chic 
 4 chic 
 5 chic 
 6 chic 
 7 chic 
 8 chic 
 9 chic 
10 chic 
# … with 6,930 more rows
…
The conditions goes as second parameter (it can be an arbitrarily
complex logical expression).

The logical expression returns a logical vector that
filter() uses to return only the
rows corrisponding to the TRUEs.

Unlike base subsetting with [, when a condition
evaluates to NA the row will be
dropped.

chic.filt <- filter(chicago, pm25tmean2 > 30)
chic.filt
# A tibble: 194 × 8
   city   tmpd  dptp date       pm25tmean2 pm10tmean2 o3tmean2 no2tmean2
   <chr> <dbl> <dbl> <date>          <dbl>      <dbl>    <dbl>     <dbl>
 1 chic     23  21.9 1998-01-17       38.1       32.5     3.18      25.3
 2 chic     28  25.8 1998-01-23       34.0       38.7     1.75      29.4
 3 chic     55  51.3 1998-04-30       39.4       34      10.8       25.3
 4 chic     59  53.7 1998-05-01       35.4       28.5    14.3       31.4
 5 chic     57  52   1998-05-02       33.3       35      20.7       26.8
 6 chic     57  56   1998-05-07       32.1       34.5    24.3       34.0
 7 chic     75  65.8 1998-05-15       56.5       91      38.6       29.0
 8 chic     61  59   1998-06-09       33.8       26      17.9       25.5
 9 chic     73  60.3 1998-07-13       30.3       64.5    37.0       37.9
10 chic     78  67.1 1998-07-14       41.4       75      40.1       32.6
# … with 184 more rows

select(chic.filt, city:dptp, pm25tmean2)
# A tibble: 194 × 4
   city   tmpd  dptp pm25tmean2
   <chr> <dbl> <dbl>      <dbl>
 1 chic     23  21.9       38.1
 2 chic     28  25.8       34.0
 3 chic     55  51.3       39.4
 4 chic     59  53.7       35.4
 5 chic     57  52         33.3
 6 chic     57  56         32.1
 7 chic     75  65.8       56.5
 8 chic     61  59         33.8
 9 chic     73  60.3       30.3
10 chic     78  67.1       41.4
# … with 184 more rows
…
If we want to relate the various conditions with an
OR operation, we have to do that using the
| operator.

chic.filt3 <- filter(chicago, pm25tmean2 > 30 | tmpd > 80)
chic.filt3
# A tibble: 379 × 8
   city   tmpd  dptp date       pm25tmean2 pm10tmean2 o3tmean2 no2tmean2
   <chr> <dbl> <dbl> <date>          <dbl>      <dbl>    <dbl>     <dbl>
 1 chic   83    68.5 1987-06-14         NA       43.7     45.4      26.0
 2 chic   80.5  62.8 1987-06-18         NA       90       63.0      43.8
 3 chic   80.5  69.2 1987-07-08         NA       38       30.9      23.0
 4 chic   80.5  67.6 1987-07-09         NA       31       24.9      20.2
 5 chic   84.5  73.6 1987-07-19         NA       72       47.1      13.4
 6 chic   81.5  67.6 1987-07-20         NA       65.4     40.5      18.5
 7 chic   81    71.2 1987-07-21         NA       58       58.2      36.6
 8 chic   80.5  69.6 1987-07-22         NA       98       45.3      36.4
 9 chic   82    70   1987-07-23         NA      117       59.2      26.0
10 chic   83    71.2 1987-07-24         NA       79       35.7      23.2
# … with 369 more rows
…
