Exploratory Data Analysis Course - Module 4
…
## Ensure names are properly formatted
names(pm0) <- make.names(cnames[[1]])
pm0
# A tibble: 117,421 × 28
   X..RD Action.Code State.Code County.Code Site.ID Parameter   POC
   <chr> <chr>       <chr>      <chr>       <chr>       <dbl> <dbl>
 1 RD    I           01         027         0001        88101     1
 2 RD    I           01         027         0001        88101     1
 3 RD    I           01         027         0001        88101     1
 4 RD    I           01         027         0001        88101     1
 5 RD    I           01         027         0001        88101     1
 6 RD    I           01         027         0001        88101     1
 7 RD    I           01         027         0001        88101     1
 8 RD    I           01         027         0001        88101     1
 9 RD    I           01         027         0001        88101     1
10 RD    I           01         027         0001        88101     1
# … with 117,411 more rows, and 21 more variables: Sample.Duration <dbl>,
#   Unit <dbl>, Method <dbl>, Date <dbl>, Start.Time <time>,
#   Sample.Value <dbl>, Null.Data.Code <chr>, Sampling.Frequency <dbl>,
#   Monitor.Protocol..MP..ID <lgl>, Qualifier...1 <chr>, Qualifier...2 <lgl>,
#   Qualifier...3 <lgl>, Qualifier...4 <lgl>, Qualifier...5 <lgl>,
#   Qualifier...6 <lgl>, Qualifier...7 <lgl>, Qualifier...8 <lgl>,
#   Qualifier...9 <lgl>, Qualifier...10 <lgl>, …
…
head(pm1[, 1:13])
# A tibble: 6 × 13
  X1    X2    X3    X4    X5       X6    X7    X8    X9   X10      X11 X12   
  <chr> <chr> <chr> <chr> <chr> <dbl> <dbl> <dbl> <dbl> <dbl>    <dbl> <time>
1 RD    I     01    003   0010  88101     1     7   105   118 20120101 00'00"
2 RD    I     01    003   0010  88101     1     7   105   118 20120104 00'00"
3 RD    I     01    003   0010  88101     1     7   105   118 20120107 00'00"
4 RD    I     01    003   0010  88101     1     7   105   118 20120110 00'00"
5 RD    I     01    003   0010  88101     1     7   105   118 20120113 00'00"
6 RD    I     01    003   0010  88101     1     7   105   118 20120116 00'00"
# … with 1 more variable: X13 <dbl>

names(pm1) <- make.names(cnames[[1]])
pm1
# A tibble: 1,304,287 × 28
   X..RD Action.Code State.Code County.Code Site.ID Parameter   POC
   <chr> <chr>       <chr>      <chr>       <chr>       <dbl> <dbl>
 1 RD    I           01         003         0010        88101     1
 2 RD    I           01         003         0010        88101     1
 3 RD    I           01         003         0010        88101     1
 4 RD    I           01         003         0010        88101     1
 5 RD    I           01         003         0010        88101     1
 6 RD    I           01         003         0010        88101     1
 7 RD    I           01         003         0010        88101     1
 8 RD    I           01         003         0010        88101     1
 9 RD    I           01         003         0010        88101     1
10 RD    I           01         003         0010        88101     1
# … with 1,304,277 more rows, and 21 more variables: Sample.Duration <dbl>,
#   Unit <dbl>, Method <dbl>, Date <dbl>, Start.Time <time>,
#   Sample.Value <dbl>, Null.Data.Code <chr>, Sampling.Frequency <dbl>,
#   Monitor.Protocol..MP..ID <lgl>, Qualifier...1 <chr>, Qualifier...2 <chr>,
#   Qualifier...3 <lgl>, Qualifier...4 <lgl>, Qualifier...5 <lgl>,
#   Qualifier...6 <lgl>, Qualifier...7 <lgl>, Qualifier...8 <lgl>,
#   Qualifier...9 <lgl>, Qualifier...10 <lgl>, …
…
The idea here is that perhaps negative values occur more
often in some parts of the year than other parts.

The original data are formatted as character strings so we convert
them to R’s Date format for easier manipulation.

library(lubridate)

neg.inspect <- filter(pm, year == "2012") %>% 
        mutate(negative = PM < 0, date = ymd(Date)) %>% 
        select(date, negative)

neg.inspect
# A tibble: 1,304,287 × 2
   date       negative
   <date>     <lgl>   
 1 2012-01-01 FALSE   
 2 2012-01-04 FALSE   
 3 2012-01-07 FALSE   
 4 2012-01-10 FALSE   
 5 2012-01-13 FALSE   
 6 2012-01-16 FALSE   
 7 2012-01-19 FALSE   
 8 2012-01-22 FALSE   
 9 2012-01-25 FALSE   
10 2012-01-28 FALSE   
# … with 1,304,277 more rows
…
First we subset the data frame to:

Only include data from New York
(State.Code == 36).

And only include the County.Code, the
Site.ID (i.e. monitor number) and the year
variables.

sites <- filter(pm, State.Code == 36) %>% 
        select(County.Code, Site.ID, year) %>% 
        unique
sites
# A tibble: 51 × 3
   County.Code Site.ID year 
   <chr>       <chr>   <fct>
 1 001         0005    1999 
 2 001         0012    1999 
 3 005         0073    1999 
 4 005         0080    1999 
 5 005         0083    1999 
 6 005         0110    1999 
 7 013         0011    1999 
 8 027         1004    1999 
 9 029         0002    1999 
10 029         0005    1999 
# … with 41 more rows
…
Now let’s choose one of those monitors.

Rather than choose one at random, it might best to choose one that
had a reasonable amount of data in each year.

So first we subset the original data frame to only
include the data from the monitors that overlap between 1999 and
2012.

count <- mutate(pm, site.code = paste(County.Code, Site.ID, sep = ".")) %>% 
        filter(site.code %in% both)
count
# A tibble: 1,745 × 30
   X..RD Action.Code State.Code County.Code Site.ID Parameter   POC
   <chr> <chr>       <chr>      <chr>       <chr>       <dbl> <dbl>
 1 RD    I           06         101         0003        88101     1
 2 RD    I           06         101         0003        88101     1
 3 RD    I           06         101         0003        88101     1
 4 RD    I           06         101         0003        88101     1
 5 RD    I           06         101         0003        88101     1
 6 RD    I           06         101         0003        88101     1
 7 RD    I           06         101         0003        88101     1
 8 RD    I           06         101         0003        88101     1
 9 RD    I           06         101         0003        88101     1
10 RD    I           06         101         0003        88101     1
# … with 1,735 more rows, and 23 more variables: Sample.Duration <dbl>,
#   Unit <dbl>, Method <dbl>, Date <dbl>, Start.Time <time>, PM <dbl>,
#   Null.Data.Code <chr>, Sampling.Frequency <dbl>,
#   Monitor.Protocol..MP..ID <lgl>, Qualifier...1 <chr>, Qualifier...2 <chr>,
#   Qualifier...3 <lgl>, Qualifier...4 <lgl>, Qualifier...5 <lgl>,
#   Qualifier...6 <lgl>, Qualifier...7 <lgl>, Qualifier...8 <lgl>,
#   Qualifier...9 <lgl>, Qualifier...10 <lgl>, …
…
A number of monitors seem suitable from the output.

But we will focus here on County
63 and site ID 2008.

pmsub <- filter(pm, State.Code == "36" & County.Code == "063" & Site.ID == "2008") %>% 
        select(Date, year, PM) %>% 
        mutate(Date = ymd(Date), yday = yday(Date))
pmsub
# A tibble: 152 × 4
   Date       year     PM  yday
   <date>     <fct> <dbl> <dbl>
 1 1999-07-02 1999   NA     183
 2 1999-07-05 1999   NA     186
 3 1999-07-08 1999    4.9   189
 4 1999-07-11 1999    4.8   192
 5 1999-07-14 1999   24.8   195
 6 1999-07-17 1999   40     198
 7 1999-07-20 1999   NA     201
 8 1999-07-23 1999   NA     204
 9 1999-07-26 1999   16.6   207
10 1999-07-29 1999   NA     210
# … with 142 more rows
…
Therefore, it might be useful to examine changes in PM at the
state level.

This analysis falls somewhere in between looking at the entire
country all at once and looking at an individual monitor.

What we do here is calculate the mean of PM for each
state in 1999 and 2012.

mn <- group_by(pm, year, State.Code) %>% summarize(PM = mean(PM, na.rm = TRUE))
`summarise()` has grouped output by 'year'. You can override using the `.groups`
argument.
mn
# A tibble: 105 × 3
# Groups:   year [2]
   year  State.Code    PM
   <fct> <chr>      <dbl>
 1 1999  01         20.0 
 2 1999  02          6.67
 3 1999  04         10.8 
 4 1999  05         15.7 
 5 1999  06         17.7 
 6 1999  08          7.53
 7 1999  09         13.3 
 8 1999  10         14.5 
 9 1999  11         15.8 
10 1999  12         11.1 
# … with 95 more rows
…
