Exploratory Data Analysis Course - Module 1
…
We’ve already downloaded the avgpm25.csv file.

This dataset contains the annual mean PM2.5 averaged over
the period 2008 through 2010.

library(dplyr)

class <- c("numeric", "character", "factor", "numeric", "numeric")
pollution <- read.csv("4_data/avgpm25.csv", colClasses = class)

pollution <- as_tibble(pollution)
pollution
# A tibble: 576 × 5
    pm25 fips  region longitude latitude
   <dbl> <chr> <fct>      <dbl>    <dbl>
 1  9.77 01003 east       -87.7     30.6
 2  9.99 01027 east       -85.8     33.3
 3 10.7  01033 east       -87.7     34.7
 4 11.3  01049 east       -85.8     34.5
 5 12.1  01055 east       -86.0     34.0
 6 10.8  01069 east       -85.4     31.2
 7 11.6  01073 east       -86.8     33.5
 8 11.3  01089 east       -86.6     34.7
 9  9.41 01097 east       -88.1     30.7
10 11.4  01103 east       -86.9     34.5
# … with 566 more rows
…
